<svg xmlns="http://www.w3.org/2000/svg" width="33" height="40" viewBox="0 0 33 40">
  <path id="lock-solid" d="M29.464,17.5H27.7V11.875C27.7,5.328,22.673,0,16.5,0S5.3,5.328,5.3,11.875V17.5H3.536A3.649,3.649,0,0,0,0,21.25v15A3.649,3.649,0,0,0,3.536,40H29.464A3.649,3.649,0,0,0,33,36.25v-15A3.649,3.649,0,0,0,29.464,17.5Zm-7.661,0H11.2V11.875A5.478,5.478,0,0,1,16.5,6.25a5.478,5.478,0,0,1,5.3,5.625Z" fill="#590a18"/>
</svg>
