<svg xmlns="http://www.w3.org/2000/svg" width="17.933" height="22.417" viewBox="0 0 17.933 22.417">
  <path id="map-marker-alt-solid_1_" data-name="map-marker-alt-solid (1)" d="M8.045,21.964C1.26,12.742,0,11.8,0,8.406A8.7,8.7,0,0,1,8.967,0a8.7,8.7,0,0,1,8.967,8.406c0,3.389-1.26,4.336-8.045,13.558A1.165,1.165,0,0,1,8.045,21.964Zm.922-10.055a3.625,3.625,0,0,0,3.736-3.5A3.625,3.625,0,0,0,8.967,4.9a3.625,3.625,0,0,0-3.736,3.5A3.625,3.625,0,0,0,8.967,11.909Z" fill="#0c2659"/>
</svg>
