<svg xmlns="http://www.w3.org/2000/svg" width="41.208" height="41.208" viewBox="0 0 41.208 41.208">
  <path id="microchip-solid" d="M33.481,3.863V37.345a3.863,3.863,0,0,1-3.863,3.863H11.59a3.863,3.863,0,0,1-3.863-3.863V3.863A3.863,3.863,0,0,1,11.59,0H29.618A3.863,3.863,0,0,1,33.481,3.863Zm7.726,4.668V9.5a.483.483,0,0,1-.483.483H39.276v.483a.483.483,0,0,1-.483.483h-3.38V7.083h3.38a.483.483,0,0,1,.483.483v.483h1.449a.483.483,0,0,1,.483.483Zm0,7.726v.966a.483.483,0,0,1-.483.483H39.276v.483a.483.483,0,0,1-.483.483h-3.38V14.809h3.38a.483.483,0,0,1,.483.483v.483h1.449A.483.483,0,0,1,41.208,16.258Zm0,7.726v.966a.483.483,0,0,1-.483.483H39.276v.483a.483.483,0,0,1-.483.483h-3.38V22.535h3.38a.483.483,0,0,1,.483.483V23.5h1.449A.483.483,0,0,1,41.208,23.984Zm0,7.726v.966a.483.483,0,0,1-.483.483H39.276v.483a.483.483,0,0,1-.483.483h-3.38V30.262h3.38a.483.483,0,0,1,.483.483v.483h1.449a.483.483,0,0,1,.483.483ZM2.415,30.262h3.38v3.863H2.415a.483.483,0,0,1-.483-.483v-.483H.483A.483.483,0,0,1,0,32.676v-.966a.483.483,0,0,1,.483-.483H1.932v-.483a.483.483,0,0,1,.483-.483Zm0-7.726h3.38V26.4H2.415a.483.483,0,0,1-.483-.483v-.483H.483A.483.483,0,0,1,0,24.95v-.966A.483.483,0,0,1,.483,23.5H1.932v-.483a.483.483,0,0,1,.483-.483Zm0-7.726h3.38v3.863H2.415a.483.483,0,0,1-.483-.483v-.483H.483A.483.483,0,0,1,0,17.224v-.966a.483.483,0,0,1,.483-.483H1.932v-.483a.483.483,0,0,1,.483-.483Zm0-7.726h3.38v3.863H2.415a.483.483,0,0,1-.483-.483V9.98H.483A.483.483,0,0,1,0,9.5V8.531a.483.483,0,0,1,.483-.483H1.932V7.565a.483.483,0,0,1,.483-.483Z" fill="#590a18"/>
</svg>
