<svg xmlns="http://www.w3.org/2000/svg" width="19.926" height="19.926" viewBox="0 0 19.926 19.926">
  <path id="whatsapp-brands" d="M16.941,34.9A9.877,9.877,0,0,0,1.4,46.811L0,51.926l5.235-1.374a9.844,9.844,0,0,0,4.719,1.2h0A9.811,9.811,0,0,0,16.941,34.9ZM9.959,50.089a8.192,8.192,0,0,1-4.181-1.143l-.3-.178-3.1.814L3.2,46.553l-.2-.311a8.223,8.223,0,1,1,15.251-4.363A8.3,8.3,0,0,1,9.959,50.089Zm4.5-6.147c-.245-.125-1.459-.721-1.686-.8s-.391-.125-.556.125-.636.8-.783.97-.289.187-.534.062a6.716,6.716,0,0,1-3.358-2.936c-.254-.436.254-.4.725-1.348a.457.457,0,0,0-.022-.431c-.062-.125-.556-1.339-.761-1.832s-.4-.414-.556-.423-.307-.009-.471-.009a.914.914,0,0,0-.658.307,2.772,2.772,0,0,0-.863,2.059,4.833,4.833,0,0,0,1.005,2.553,11.025,11.025,0,0,0,4.216,3.727,4.828,4.828,0,0,0,2.962.618,2.527,2.527,0,0,0,1.663-1.174,2.063,2.063,0,0,0,.142-1.174C14.869,44.125,14.7,44.062,14.46,43.942Z" transform="translate(0 -32)" fill="#0c2659"/>
</svg>
